-120 56 -192 -8 -8 568
992
-184 -168 624
-168 -64 -72 -16 -112 -112 -32 -104 248
-72 -96 -120 400 -144 120
-112 -32 832
-80 -88 -176 -16 -8 56 -192 320
-192 56 -72 648
-8 64 -136 760
992
24 -192 -136 -168 -136 296
992
-128 -16 832
992
-8 -120 848
-152 -24 800
-24 8 -112 824
-64 -136 -136 -168 -56 -24 360
104 -136 -24 704
-40 112 -40 776
-112 -64 800
32 -88 -40 -88 -152 552
992
992
-24 80 -16 848
992
96 -184 -104 584
-136 -48 792
280 -144 -40 504
-168 128 -104 568
-160 -112 704
-168 -72 -184 -192 344
-24 -112 840
-144 312 -136 -16 40 -168 128
992
8 -128 -8 824
-64 64 -184 656
992
992
-64 24 -48 -8 -104 704
-120 -96 760
-136 -8 -136 32 -24 616
128 -40 -32 768
-16 -136 -136 -16 656
992
-48 -56 872
-144 -8 824
-104 24 -192 -40 -64 528
-24 160 -32 752
-168 24 -56 720
