-32 -40 -72 216 -88 -96 -216 24 -96 40
8 -56 -16 -240 -24 64 -64 -144 40 -112 56 -16 -24 24
-16 -16 -32 -40 80 -56 -72 24 -40 -104 -40 -344 32
-32 8 -8 -16 64 -24 -288 -88 -64 64 -64 -96 -48 24
-24 16 -24 8 -88 168 -72 -128 48 -56 -120 -24 -24 88
-40 32 -8 -48 -64 -40 -88 -56 8 -112 -40 -32 -184 -112 16
-32 -64 -32 -16 -56 -16 -16 -104 -40 48 -88 32 -32 -64 -32 -48 -40 -72 16
-40 -48 -24 -24 72 -40 -96 16 -96 152 -88 56 -144
-72 -112 32 -32 -96 152 -64 -248 -64 48
-64 -16 -16 -16 -40 -48 -56 -160 -24 24 -56 232 -48 88
-8 8 -400 -16 192 -48 -8 -168 -48 24
80 -8 80 -32 -88 -8 32 -96 24 -128 -48 24 -24 -96 112
-72 -24 -16 16 -88 -16 -80 -224 -64 24 -40 -88 -40 -56 32
-24 -16 -16 8 -16 -64 32 -16 -32 -48 -64 -56 -56 -280 -120 24
-48 16 -88 -48 56 -72 -56 -96 -80 -136 32 -56 -112
-8 -32 -16 -48 -24 -16 8 -168 -112 -72 -16 160 -216
-16 -80 -48 -8 80 -168 -8 -120 -48 -72 -8 -24 -120 -64 16
136 -56 16 -104 -120 -136 56 -8 96 -144 40
-8 -32 -16 32 -24 8 -48 -112 -40 -32 -80 -40 -56 -256 -96
-8 -16 -72 40 -48 16 -24 -112 24 -96 24 -80 -56 -112 -136 8
