-440 -24 -80 -80 -80 -56 -16 -32 120
-48 -24 40 -8 -32 -8 784
-8 376 -200 168 -16 56 -16 96
112 -48 -32 232 -240 288
824 -16 136
144 -80 -16 40 -24 648
24 -128 -120 -112 -8 32 -104 -40 -24 328
-8 16 -24 208 -336 -160 -32 152
-264 -320 -136 -48 192
232 -48 64 -232 384
352 -56 32 -8 80 -8 -24 376
768 -8 200
-8 -16 -16 -208 152 -88 -120 328
-176 -32 -48 -112 -72 48 -16 432
184 -160 432 -16 -24 -16 112
-72 -8 80 -40 -40 -8 696
192 -40 744
-112 80 -16 -16 112 -248 360
-64 -424 128 -136 32 -32 -16 -8 88
-96 296 -136 168 -48 208
