-752 -16 24 -56 -32 -16 -24 16
-632 -64 -40 -96 -88 -32
-360 -32 -104 -40 40 -80 16 -40 -48 -112 40
-512 -40 -8 -160 -32 -64 -104 -16
-72 -64 -128 24 -16 8 -32 24 -232 -40 -272
-408 64 -328 -144 -16
-520 -288 112 -24 16
-744 -48 -144 -32
-8 -224 -88 -80 360 -120 24 -16 8
-136 -104 -56 280 -48 -40 -224 -24 16
-16 -96 -96 -128 8 -200 16 -240 8 -8 96
-120 -32 32 -128 -320 -304 8
-568 32 -160 -24 -112 56
-224 -488 -40 -56 -40 -48 -24 16
-24 -32 -96 -64 576 -24 -72 -48
-40 -16 616 -72 120 -24 16 -32
-272 -48 -8 40 -152 16 -16 128 -136 24 -56 8
-40 -8 -184 -24 8 -24 -48 -56 -240 48 -200 8 -8
-440 48 -328 -40 -32 -64
-160 -56 -80 -224 8 -192 -32 -16 -32 -16 -8 80
